^G:\PROGRAMING\CPP\ENCRYPTION\ENCRYPTION\X64\RELEASE\ENCRYPTION.OBJ|G:\PROGRAMING\CPP\ENCRYPTION\ENCRYPTION\X64\RELEASE\SOURCE.OBJ
G:\PROGRAMING\CPP\ENCRYPTION\ENCRYPTION\X64\RELEASE\ENCRYPTION.OBJ
C:\WINDOWS\SYSTEM32\TZRES.DLL
G:\PROGRAMING\CPP\ENCRYPTION\ENCRYPTION\X64\RELEASE\SOURCE.OBJ
C:\WINDOWS\GLOBALIZATION\SORTING\SORTDEFAULT.NLS
